…
> ### ** Examples
> 
> # Load example data
> data(bma)
> # Add metadata from user parameters
> bma_tidy <- tidy_plates_via_params(input_data = bma,
+                                    direction = "horizontal",
+                                    group_IDs = paste0("Group_", letters[1:2]),
+                                    experiment_names = c("Experiment 1", "Experiment 2"),
+                                    validity_method = "threshold",
+                                    threshold = 1,
+                                    treatment_labels = LETTERS[1:8],
+                                    concentration_levels = seq(from=80, to=10, length.out=8))
> bma_tidy # View tidy data
# A tibble: 384 × 9
   Position Value Validity Treatment Concentration Timepoint File          Group
   <chr>    <dbl> <chr>    <chr>             <dbl> <chr>     <chr>         <chr>
 1 A-1      0.342 valid    A                    80 T0        bma_grp1_exp… Grou…
 2 A-2      0.354 valid    A                    80 T0        bma_grp1_exp… Grou…
 3 A-3      0.36  valid    A                    80 T0        bma_grp1_exp… Grou…
 4 A-4      0.36  valid    A                    80 T0        bma_grp1_exp… Grou…
 5 A-5      0.352 valid    A                    80 T0        bma_grp1_exp… Grou…
 6 A-6      0.363 valid    A                    80 T0        bma_grp1_exp… Grou…
 7 A-7      0.361 valid    A                    80 T0        bma_grp1_exp… Grou…
 8 A-8      0.352 valid    A                    80 T0        bma_grp1_exp… Grou…
 9 A-9      0.356 valid    A                    80 T0        bma_grp1_exp… Grou…
10 A-10     0.351 valid    A                    80 T0        bma_grp1_exp… Grou…
# ℹ 374 more rows
# ℹ 1 more variable: Experiment <chr>
…
> ### ** Examples
> 
> # Load example data
> data(bma)
> # Add metadata from user parameters
> bma_tidy <- tidy_single_plate(input_data = bma[1],
+                        direction = "horizontal",
+                        group_ID = "Group A",
+                        experiment_name = "Experiment 1",
+                        validity_method = "threshold",
+                        threshold = 1,
+                        treatment_labels = LETTERS[1:8],
+                        concentration_levels = seq(from=80, to=10, length.out=8))
> bma_tidy # View tidy data
# A tibble: 96 × 9
   Position Value Validity Treatment Concentration Timepoint File          Group
   <chr>    <dbl> <chr>    <chr>             <dbl> <chr>     <chr>         <chr>
 1 A-1      0.342 valid    A                    80 T0        bma_grp1_exp… Grou…
 2 A-2      0.354 valid    A                    80 T0        bma_grp1_exp… Grou…
 3 A-3      0.36  valid    A                    80 T0        bma_grp1_exp… Grou…
 4 A-4      0.36  valid    A                    80 T0        bma_grp1_exp… Grou…
 5 A-5      0.352 valid    A                    80 T0        bma_grp1_exp… Grou…
 6 A-6      0.363 valid    A                    80 T0        bma_grp1_exp… Grou…
 7 A-7      0.361 valid    A                    80 T0        bma_grp1_exp… Grou…
 8 A-8      0.352 valid    A                    80 T0        bma_grp1_exp… Grou…
 9 A-9      0.356 valid    A                    80 T0        bma_grp1_exp… Grou…
10 A-10     0.351 valid    A                    80 T0        bma_grp1_exp… Grou…
# ℹ 86 more rows
# ℹ 1 more variable: Experiment <chr>
…
